info face="Arial" size=24 bold=0 italic=0 charset="" unicode=1 stretchH=100 smooth=1 aa=1 padding=0,0,0,0 spacing=1,1 outline=0
common lineHeight=24 base=19 scaleW=256 scaleH=256 pages=1 packed=0 alphaChnl=1 redChnl=0 greenChnl=0 blueChnl=0
page id=0 file="default_0.png"
chars count=209
char id=32   x=206   y=17    width=3     height=1     xoffset=-1    yoffset=23    xadvance=6     page=0  chnl=15
char id=33   x=94    y=116   width=4     height=15    xoffset=1     yoffset=4     xadvance=6     page=0  chnl=15
char id=34   x=31    y=157   width=7     height=5     xoffset=0     yoffset=4     xadvance=7     page=0  chnl=15
char id=35   x=209   y=51    width=13    height=15    xoffset=-1    yoffset=4     xadvance=12    page=0  chnl=15
char id=36   x=193   y=0     width=12    height=18    xoffset=0     yoffset=3     xadvance=12    page=0  chnl=15
char id=37   x=43    y=20    width=18    height=15    xoffset=0     yoffset=4     xadvance=19    page=0  chnl=15
char id=38   x=165   y=52    width=14    height=15    xoffset=0     yoffset=4     xadvance=14    page=0  chnl=15
char id=39   x=251   y=139   width=4     height=5     xoffset=0     yoffset=4     xadvance=4     page=0  chnl=15
char id=40   x=160   y=0     width=6     height=19    xoffset=1     yoffset=4     xadvance=7     page=0  chnl=15
char id=41   x=167   y=0     width=6     height=19    xoffset=1     yoffset=4     xadvance=7     page=0  chnl=15
char id=42   x=22    y=157   width=8     height=6     xoffset=0     yoffset=4     xadvance=8     page=0  chnl=15
char id=43   x=238   y=139   width=12    height=10    xoffset=0     yoffset=7     xadvance=12    page=0  chnl=15
char id=44   x=39    y=157   width=4     height=5     xoffset=1     yoffset=17    xadvance=6     page=0  chnl=15
char id=45   x=136   y=128   width=7     height=2     xoffset=0     yoffset=12    xadvance=7     page=0  chnl=15
char id=46   x=147   y=140   width=4     height=2     xoffset=1     yoffset=17    xadvance=6     page=0  chnl=15
char id=47   x=247   y=81    width=8     height=15    xoffset=-1    yoffset=4     xadvance=6     page=0  chnl=15
char id=48   x=123   y=100   width=11    height=15    xoffset=0     yoffset=4     xadvance=12    page=0  chnl=15
char id=49   x=79    y=116   width=7     height=15    xoffset=2     yoffset=4     xadvance=12    page=0  chnl=15
char id=50   x=104   y=84    width=12    height=15    xoffset=0     yoffset=4     xadvance=12    page=0  chnl=15
char id=51   x=52    y=85    width=12    height=15    xoffset=0     yoffset=4     xadvance=12    page=0  chnl=15
char id=52   x=39    y=85    width=12    height=15    xoffset=0     yoffset=4     xadvance=12    page=0  chnl=15
char id=53   x=26    y=85    width=12    height=15    xoffset=0     yoffset=4     xadvance=12    page=0  chnl=15
char id=54   x=130   y=84    width=12    height=15    xoffset=0     yoffset=4     xadvance=12    page=0  chnl=15
char id=55   x=143   y=84    width=12    height=15    xoffset=0     yoffset=4     xadvance=12    page=0  chnl=15
char id=56   x=111   y=100   width=11    height=15    xoffset=0     yoffset=4     xadvance=12    page=0  chnl=15
char id=57   x=182   y=84    width=12    height=15    xoffset=0     yoffset=4     xadvance=12    page=0  chnl=15
char id=58   x=233   y=140   width=4     height=11    xoffset=1     yoffset=8     xadvance=6     page=0  chnl=15
char id=59   x=131   y=116   width=4     height=14    xoffset=1     yoffset=8     xadvance=6     page=0  chnl=15
char id=60   x=160   y=128   width=12    height=11    xoffset=0     yoffset=6     xadvance=12    page=0  chnl=15
char id=61   x=9     y=157   width=12    height=7     xoffset=0     yoffset=8     xadvance=12    page=0  chnl=15
char id=62   x=56    y=133   width=12    height=11    xoffset=0     yoffset=6     xadvance=12    page=0  chnl=15
char id=63   x=26    y=101   width=12    height=15    xoffset=0     yoffset=4     xadvance=12    page=0  chnl=15
char id=64   x=4     y=0     width=21    height=19    xoffset=0     yoffset=4     xadvance=21    page=0  chnl=15
char id=65   x=113   y=36    width=15    height=15    xoffset=-1    yoffset=4     xadvance=13    page=0  chnl=15
char id=66   x=56    y=68    width=13    height=15    xoffset=1     yoffset=4     xadvance=14    page=0  chnl=15
char id=67   x=193   y=36    width=15    height=15    xoffset=0     yoffset=4     xadvance=15    page=0  chnl=15
char id=68   x=209   y=35    width=14    height=15    xoffset=1     yoffset=4     xadvance=15    page=0  chnl=15
char id=69   x=237   y=49    width=13    height=15    xoffset=1     yoffset=4     xadvance=14    page=0  chnl=15
char id=70   x=221   y=83    width=12    height=15    xoffset=1     yoffset=4     xadvance=13    page=0  chnl=15
char id=71   x=33    y=36    width=15    height=15    xoffset=0     yoffset=4     xadvance=16    page=0  chnl=15
char id=72   x=169   y=84    width=12    height=15    xoffset=1     yoffset=4     xadvance=14    page=0  chnl=15
char id=73   x=99    y=116   width=4     height=15    xoffset=1     yoffset=4     xadvance=6     page=0  chnl=15
char id=74   x=218   y=100   width=10    height=15    xoffset=0     yoffset=4     xadvance=11    page=0  chnl=15
char id=75   x=0     y=69    width=13    height=15    xoffset=1     yoffset=4     xadvance=14    page=0  chnl=15
char id=76   x=75    y=100   width=11    height=15    xoffset=1     yoffset=4     xadvance=12    page=0  chnl=15
char id=77   x=97    y=36    width=15    height=15    xoffset=1     yoffset=4     xadvance=17    page=0  chnl=15
char id=78   x=0     y=85    width=12    height=15    xoffset=1     yoffset=4     xadvance=14    page=0  chnl=15
char id=79   x=235   y=16    width=16    height=15    xoffset=0     yoffset=4     xadvance=16    page=0  chnl=15
char id=80   x=14    y=69    width=13    height=15    xoffset=1     yoffset=4     xadvance=14    page=0  chnl=15
char id=81   x=206   y=0     width=16    height=16    xoffset=0     yoffset=4     xadvance=16    page=0  chnl=15
char id=82   x=45    y=52    width=14    height=15    xoffset=1     yoffset=4     xadvance=15    page=0  chnl=15
char id=83   x=60    y=52    width=14    height=15    xoffset=0     yoffset=4     xadvance=14    page=0  chnl=15
char id=84   x=75    y=52    width=14    height=15    xoffset=-1    yoffset=4     xadvance=12    page=0  chnl=15
char id=85   x=65    y=84    width=12    height=15    xoffset=1     yoffset=4     xadvance=14    page=0  chnl=15
char id=86   x=28    y=69    width=13    height=15    xoffset=0     yoffset=4     xadvance=13    page=0  chnl=15
char id=87   x=223   y=0     width=21    height=15    xoffset=0     yoffset=4     xadvance=21    page=0  chnl=15
char id=88   x=90    y=52    width=14    height=15    xoffset=0     yoffset=4     xadvance=14    page=0  chnl=15
char id=89   x=105   y=52    width=14    height=15    xoffset=0     yoffset=4     xadvance=14    page=0  chnl=15
char id=90   x=42    y=69    width=13    height=15    xoffset=0     yoffset=4     xadvance=13    page=0  chnl=15
char id=91   x=187   y=0     width=5     height=19    xoffset=1     yoffset=4     xadvance=6     page=0  chnl=15
char id=92   x=70    y=117   width=8     height=15    xoffset=-1    yoffset=4     xadvance=6     page=0  chnl=15
char id=93   x=181   y=0     width=5     height=19    xoffset=0     yoffset=4     xadvance=6     page=0  chnl=15
char id=94   x=0     y=157   width=8     height=8     xoffset=0     yoffset=4     xadvance=8     page=0  chnl=15
char id=95   x=62    y=157   width=14    height=2     xoffset=-1    yoffset=21    xadvance=12    page=0  chnl=15
char id=96   x=57    y=157   width=4     height=3     xoffset=1     yoffset=4     xadvance=7     page=0  chnl=15
char id=97   x=121   y=131   width=12    height=11    xoffset=0     yoffset=8     xadvance=12    page=0  chnl=15
char id=98   x=39    y=101   width=11    height=15    xoffset=0     yoffset=4     xadvance=11    page=0  chnl=15
char id=99   x=24    y=145   width=10    height=11    xoffset=0     yoffset=8     xadvance=11    page=0  chnl=15
char id=100  x=229   y=99    width=10    height=15    xoffset=0     yoffset=4     xadvance=11    page=0  chnl=15
char id=101  x=95    y=132   width=12    height=11    xoffset=0     yoffset=8     xadvance=12    page=0  chnl=15
char id=102  x=61    y=117   width=8     height=15    xoffset=0     yoffset=4     xadvance=6     page=0  chnl=15
char id=103  x=207   y=100   width=10    height=15    xoffset=0     yoffset=8     xadvance=11    page=0  chnl=15
char id=104  x=11    y=117   width=9     height=15    xoffset=1     yoffset=4     xadvance=11    page=0  chnl=15
char id=105  x=252   y=16    width=3     height=15    xoffset=1     yoffset=4     xadvance=5     page=0  chnl=15
char id=106  x=174   y=0     width=6     height=19    xoffset=-2    yoffset=4     xadvance=4     page=0  chnl=15
char id=107  x=31    y=117   width=9     height=15    xoffset=1     yoffset=4     xadvance=10    page=0  chnl=15
char id=108  x=251   y=97    width=4     height=15    xoffset=0     yoffset=4     xadvance=4     page=0  chnl=15
char id=109  x=170   y=116   width=16    height=11    xoffset=0     yoffset=8     xadvance=16    page=0  chnl=15
char id=110  x=195   y=140   width=9     height=11    xoffset=1     yoffset=8     xadvance=11    page=0  chnl=15
char id=111  x=82    y=132   width=12    height=11    xoffset=0     yoffset=8     xadvance=12    page=0  chnl=15
char id=112  x=51    y=101   width=11    height=15    xoffset=0     yoffset=8     xadvance=11    page=0  chnl=15
char id=113  x=240   y=99    width=10    height=15    xoffset=0     yoffset=8     xadvance=11    page=0  chnl=15
char id=114  x=248   y=127   width=7     height=11    xoffset=1     yoffset=8     xadvance=7     page=0  chnl=15
char id=115  x=236   y=127   width=11    height=11    xoffset=0     yoffset=8     xadvance=11    page=0  chnl=15
char id=116  x=87    y=116   width=6     height=15    xoffset=0     yoffset=4     xadvance=6     page=0  chnl=15
char id=117  x=175   y=140   width=9     height=11    xoffset=1     yoffset=8     xadvance=11    page=0  chnl=15
char id=118  x=224   y=128   width=11    height=11    xoffset=0     yoffset=8     xadvance=11    page=0  chnl=15
char id=119  x=153   y=116   width=16    height=11    xoffset=-1    yoffset=8     xadvance=15    page=0  chnl=15
char id=120  x=112   y=143   width=10    height=11    xoffset=0     yoffset=8     xadvance=10    page=0  chnl=15
char id=121  x=63    y=101   width=11    height=15    xoffset=0     yoffset=8     xadvance=11    page=0  chnl=15
char id=122  x=212   y=128   width=11    height=11    xoffset=-1    yoffset=8     xadvance=9     page=0  chnl=15
char id=123  x=144   y=0     width=7     height=19    xoffset=0     yoffset=4     xadvance=7     page=0  chnl=15
char id=124  x=0     y=0     width=3     height=20    xoffset=1     yoffset=4     xadvance=6     page=0  chnl=15
char id=125  x=152   y=0     width=7     height=19    xoffset=0     yoffset=4     xadvance=7     page=0  chnl=15
char id=126  x=44    y=157   width=12    height=4     xoffset=0     yoffset=10    xadvance=12    page=0  chnl=15
char id=913  x=65    y=36    width=15    height=15    xoffset=-1    yoffset=4     xadvance=13    page=0  chnl=15
char id=914  x=98    y=68    width=13    height=15    xoffset=1     yoffset=4     xadvance=14    page=0  chnl=15
char id=915  x=87    y=100   width=11    height=15    xoffset=1     yoffset=4     xadvance=12    page=0  chnl=15
char id=916  x=218   y=17    width=16    height=15    xoffset=-1    yoffset=4     xadvance=14    page=0  chnl=15
char id=917  x=112   y=68    width=13    height=15    xoffset=1     yoffset=4     xadvance=14    page=0  chnl=15
char id=918  x=126   y=68    width=13    height=15    xoffset=0     yoffset=4     xadvance=13    page=0  chnl=15
char id=919  x=208   y=84    width=12    height=15    xoffset=1     yoffset=4     xadvance=14    page=0  chnl=15
char id=920  x=201   y=19    width=16    height=15    xoffset=0     yoffset=4     xadvance=16    page=0  chnl=15
char id=921  x=251   y=48    width=4     height=15    xoffset=1     yoffset=4     xadvance=6     page=0  chnl=15
char id=922  x=70    y=68    width=13    height=15    xoffset=1     yoffset=4     xadvance=14    page=0  chnl=15
char id=923  x=0     y=53    width=14    height=15    xoffset=0     yoffset=4     xadvance=14    page=0  chnl=15
char id=924  x=161   y=36    width=15    height=15    xoffset=1     yoffset=4     xadvance=17    page=0  chnl=15
char id=925  x=13    y=85    width=12    height=15    xoffset=1     yoffset=4     xadvance=14    page=0  chnl=15
char id=926  x=150   y=52    width=14    height=15    xoffset=0     yoffset=4     xadvance=14    page=0  chnl=15
char id=927  x=99    y=20    width=16    height=15    xoffset=0     yoffset=4     xadvance=16    page=0  chnl=15
char id=928  x=156   y=84    width=12    height=15    xoffset=1     yoffset=4     xadvance=14    page=0  chnl=15
char id=929  x=84    y=68    width=13    height=15    xoffset=1     yoffset=4     xadvance=14    page=0  chnl=15
char id=931  x=195   y=84    width=12    height=15    xoffset=1     yoffset=4     xadvance=13    page=0  chnl=15
char id=932  x=224   y=33    width=14    height=15    xoffset=-1    yoffset=4     xadvance=12    page=0  chnl=15
char id=933  x=180   y=52    width=14    height=15    xoffset=0     yoffset=4     xadvance=14    page=0  chnl=15
char id=934  x=0     y=37    width=16    height=15    xoffset=0     yoffset=4     xadvance=16    page=0  chnl=15
char id=935  x=15    y=53    width=14    height=15    xoffset=0     yoffset=4     xadvance=14    page=0  chnl=15
char id=936  x=133   y=20    width=16    height=15    xoffset=1     yoffset=4     xadvance=18    page=0  chnl=15
char id=937  x=116   y=20    width=16    height=15    xoffset=0     yoffset=4     xadvance=16    page=0  chnl=15
char id=945  x=134   y=131   width=12    height=11    xoffset=0     yoffset=8     xadvance=12    page=0  chnl=15
char id=946  x=110   y=0     width=11    height=19    xoffset=1     yoffset=4     xadvance=12    page=0  chnl=15
char id=947  x=0     y=117   width=10    height=15    xoffset=0     yoffset=8     xadvance=10    page=0  chnl=15
char id=948  x=78    y=84    width=12    height=15    xoffset=0     yoffset=4     xadvance=12    page=0  chnl=15
char id=949  x=185   y=140   width=9     height=11    xoffset=0     yoffset=8     xadvance=9     page=0  chnl=15
char id=950  x=133   y=0     width=10    height=19    xoffset=0     yoffset=4     xadvance=9     page=0  chnl=15
char id=951  x=51    y=117   width=9     height=15    xoffset=1     yoffset=8     xadvance=11    page=0  chnl=15
char id=952  x=117   y=84    width=12    height=15    xoffset=0     yoffset=4     xadvance=12    page=0  chnl=15
char id=953  x=251   y=113   width=4     height=11    xoffset=0     yoffset=8     xadvance=4     page=0  chnl=15
char id=954  x=205   y=140   width=9     height=11    xoffset=1     yoffset=8     xadvance=10    page=0  chnl=15
char id=955  x=99    y=100   width=11    height=15    xoffset=0     yoffset=4     xadvance=11    page=0  chnl=15
char id=956  x=21    y=117   width=9     height=15    xoffset=1     yoffset=8     xadvance=11    page=0  chnl=15
char id=957  x=0     y=145   width=11    height=11    xoffset=0     yoffset=8     xadvance=11    page=0  chnl=15
char id=958  x=122   y=0     width=10    height=19    xoffset=0     yoffset=4     xadvance=9     page=0  chnl=15
char id=959  x=69    y=133   width=12    height=11    xoffset=0     yoffset=8     xadvance=12    page=0  chnl=15
char id=960  x=236   y=115   width=14    height=11    xoffset=0     yoffset=8     xadvance=14    page=0  chnl=15
char id=961  x=135   y=100   width=11    height=15    xoffset=1     yoffset=8     xadvance=12    page=0  chnl=15
char id=962  x=245   y=0     width=10    height=15    xoffset=0     yoffset=8     xadvance=10    page=0  chnl=15
char id=963  x=14    y=133   width=13    height=11    xoffset=0     yoffset=8     xadvance=13    page=0  chnl=15
char id=964  x=215   y=140   width=8     height=11    xoffset=0     yoffset=8     xadvance=8     page=0  chnl=15
char id=965  x=134   y=143   width=10    height=11    xoffset=0     yoffset=8     xadvance=10    page=0  chnl=15
char id=966  x=135   y=52    width=14    height=15    xoffset=0     yoffset=8     xadvance=14    page=0  chnl=15
char id=967  x=171   y=100   width=11    height=15    xoffset=0     yoffset=8     xadvance=11    page=0  chnl=15
char id=968  x=223   y=51    width=13    height=15    xoffset=1     yoffset=8     xadvance=14    page=0  chnl=15
char id=969  x=187   y=116   width=16    height=11    xoffset=0     yoffset=8     xadvance=16    page=0  chnl=15
char id=1040 x=17    y=37    width=15    height=15    xoffset=-1    yoffset=4     xadvance=13    page=0  chnl=15
char id=1041 x=140   y=68    width=13    height=15    xoffset=1     yoffset=4     xadvance=14    page=0  chnl=15
char id=1042 x=154   y=68    width=13    height=15    xoffset=1     yoffset=4     xadvance=14    page=0  chnl=15
char id=1043 x=195   y=100   width=11    height=15    xoffset=1     yoffset=4     xadvance=11    page=0  chnl=15
char id=1044 x=64    y=0     width=15    height=19    xoffset=-1    yoffset=4     xadvance=14    page=0  chnl=15
char id=1045 x=195   y=52    width=13    height=15    xoffset=1     yoffset=4     xadvance=14    page=0  chnl=15
char id=1046 x=0     y=21    width=21    height=15    xoffset=-1    yoffset=4     xadvance=19    page=0  chnl=15
char id=1047 x=168   y=68    width=13    height=15    xoffset=0     yoffset=4     xadvance=13    page=0  chnl=15
char id=1048 x=182   y=68    width=13    height=15    xoffset=1     yoffset=4     xadvance=15    page=0  chnl=15
char id=1049 x=96    y=0     width=13    height=19    xoffset=1     yoffset=0     xadvance=15    page=0  chnl=15
char id=1050 x=0     y=101   width=12    height=15    xoffset=1     yoffset=4     xadvance=12    page=0  chnl=15
char id=1051 x=196   y=68    width=13    height=15    xoffset=0     yoffset=4     xadvance=14    page=0  chnl=15
char id=1052 x=49    y=36    width=15    height=15    xoffset=1     yoffset=4     xadvance=17    page=0  chnl=15
char id=1053 x=13    y=101   width=12    height=15    xoffset=1     yoffset=4     xadvance=14    page=0  chnl=15
char id=1054 x=184   y=20    width=16    height=15    xoffset=0     yoffset=4     xadvance=16    page=0  chnl=15
char id=1055 x=234   y=83    width=12    height=15    xoffset=1     yoffset=4     xadvance=14    page=0  chnl=15
char id=1056 x=210   y=67    width=13    height=15    xoffset=1     yoffset=4     xadvance=14    page=0  chnl=15
char id=1057 x=177   y=36    width=15    height=15    xoffset=0     yoffset=4     xadvance=15    page=0  chnl=15
char id=1058 x=239   y=32    width=14    height=15    xoffset=-1    yoffset=4     xadvance=12    page=0  chnl=15
char id=1059 x=81    y=36    width=15    height=15    xoffset=-1    yoffset=4     xadvance=13    page=0  chnl=15
char id=1060 x=167   y=20    width=16    height=15    xoffset=0     yoffset=4     xadvance=16    page=0  chnl=15
char id=1061 x=30    y=53    width=14    height=15    xoffset=0     yoffset=4     xadvance=14    page=0  chnl=15
char id=1062 x=80    y=0     width=15    height=19    xoffset=1     yoffset=4     xadvance=16    page=0  chnl=15
char id=1063 x=224   y=67    width=13    height=15    xoffset=0     yoffset=4     xadvance=14    page=0  chnl=15
char id=1064 x=150   y=20    width=16    height=15    xoffset=1     yoffset=4     xadvance=18    page=0  chnl=15
char id=1065 x=26    y=0     width=19    height=19    xoffset=1     yoffset=4     xadvance=20    page=0  chnl=15
char id=1066 x=62    y=20    width=18    height=15    xoffset=-1    yoffset=4     xadvance=17    page=0  chnl=15
char id=1067 x=81    y=20    width=17    height=15    xoffset=1     yoffset=4     xadvance=19    page=0  chnl=15
char id=1068 x=238   y=65    width=13    height=15    xoffset=1     yoffset=4     xadvance=14    page=0  chnl=15
char id=1069 x=145   y=36    width=15    height=15    xoffset=0     yoffset=4     xadvance=15    page=0  chnl=15
char id=1070 x=22    y=20    width=20    height=15    xoffset=1     yoffset=4     xadvance=21    page=0  chnl=15
char id=1071 x=120   y=52    width=14    height=15    xoffset=0     yoffset=4     xadvance=15    page=0  chnl=15
char id=1072 x=186   y=128   width=12    height=11    xoffset=0     yoffset=8     xadvance=12    page=0  chnl=15
char id=1073 x=91    y=84    width=12    height=15    xoffset=0     yoffset=4     xadvance=12    page=0  chnl=15
char id=1074 x=79    y=145   width=10    height=11    xoffset=1     yoffset=8     xadvance=11    page=0  chnl=15
char id=1075 x=224   y=140   width=8     height=11    xoffset=1     yoffset=8     xadvance=8     page=0  chnl=15
char id=1076 x=104   y=116   width=13    height=14    xoffset=-1    yoffset=8     xadvance=12    page=0  chnl=15
char id=1077 x=173   y=128   width=12    height=11    xoffset=0     yoffset=8     xadvance=12    page=0  chnl=15
char id=1078 x=136   y=116   width=16    height=11    xoffset=-1    yoffset=8     xadvance=14    page=0  chnl=15
char id=1079 x=101   y=144   width=10    height=11    xoffset=0     yoffset=8     xadvance=10    page=0  chnl=15
char id=1080 x=145   y=143   width=9     height=11    xoffset=1     yoffset=8     xadvance=11    page=0  chnl=15
char id=1081 x=41    y=117   width=9     height=15    xoffset=1     yoffset=4     xadvance=11    page=0  chnl=15
char id=1082 x=155   y=140   width=9     height=11    xoffset=1     yoffset=8     xadvance=9     page=0  chnl=15
char id=1083 x=108   y=131   width=12    height=11    xoffset=-1    yoffset=8     xadvance=11    page=0  chnl=15
char id=1084 x=0     y=133   width=13    height=11    xoffset=0     yoffset=8     xadvance=13    page=0  chnl=15
char id=1085 x=165   y=140   width=9     height=11    xoffset=1     yoffset=8     xadvance=11    page=0  chnl=15
char id=1086 x=147   y=128   width=12    height=11    xoffset=0     yoffset=8     xadvance=12    page=0  chnl=15
char id=1087 x=57    y=145   width=10    height=11    xoffset=0     yoffset=8     xadvance=10    page=0  chnl=15
char id=1088 x=147   y=100   width=11    height=15    xoffset=0     yoffset=8     xadvance=11    page=0  chnl=15
char id=1089 x=68    y=145   width=10    height=11    xoffset=0     yoffset=8     xadvance=11    page=0  chnl=15
char id=1090 x=199   y=128   width=12    height=11    xoffset=-1    yoffset=8     xadvance=10    page=0  chnl=15
char id=1091 x=159   y=100   width=11    height=15    xoffset=0     yoffset=8     xadvance=11    page=0  chnl=15
char id=1092 x=46    y=0     width=17    height=19    xoffset=0     yoffset=4     xadvance=17    page=0  chnl=15
char id=1093 x=35    y=145   width=10    height=11    xoffset=0     yoffset=8     xadvance=10    page=0  chnl=15
char id=1094 x=183   y=100   width=11    height=15    xoffset=1     yoffset=8     xadvance=12    page=0  chnl=15
char id=1095 x=46    y=145   width=10    height=11    xoffset=0     yoffset=8     xadvance=11    page=0  chnl=15
char id=1096 x=204   y=116   width=15    height=11    xoffset=1     yoffset=8     xadvance=16    page=0  chnl=15
char id=1097 x=129   y=36    width=15    height=15    xoffset=1     yoffset=8     xadvance=16    page=0  chnl=15
char id=1098 x=28    y=133   width=13    height=11    xoffset=0     yoffset=8     xadvance=13    page=0  chnl=15
char id=1099 x=42    y=133   width=13    height=11    xoffset=1     yoffset=8     xadvance=15    page=0  chnl=15
char id=1100 x=90    y=144   width=10    height=11    xoffset=1     yoffset=8     xadvance=11    page=0  chnl=15
char id=1101 x=12    y=145   width=11    height=11    xoffset=0     yoffset=8     xadvance=11    page=0  chnl=15
char id=1102 x=220   y=116   width=15    height=11    xoffset=1     yoffset=8     xadvance=16    page=0  chnl=15
char id=1103 x=123   y=143   width=10    height=11    xoffset=0     yoffset=8     xadvance=11    page=0  chnl=15
char id=1105 x=118   y=116   width=12    height=14    xoffset=0     yoffset=5     xadvance=12    page=0  chnl=15
kernings count=353
kerning first=32  second=65  amount=-1  
kerning first=1100 second=1095 amount=-1  
kerning first=1100 second=1090 amount=-2  
kerning first=1091 second=1076 amount=-1  
kerning first=32  second=913 amount=-1  
kerning first=32  second=916 amount=-1  
kerning first=32  second=923 amount=-1  
kerning first=1091 second=46  amount=-2  
kerning first=1091 second=44  amount=-2  
kerning first=1090 second=1078 amount=1   
kerning first=49  second=49  amount=-2  
kerning first=65  second=32  amount=-1  
kerning first=65  second=84  amount=-2  
kerning first=65  second=86  amount=-2  
kerning first=65  second=87  amount=-1  
kerning first=65  second=89  amount=-2  
kerning first=1090 second=1076 amount=-1  
kerning first=1090 second=46  amount=-2  
kerning first=1090 second=44  amount=-2  
kerning first=1088 second=1083 amount=-1  
kerning first=70  second=44  amount=-2  
kerning first=70  second=46  amount=-2  
kerning first=70  second=65  amount=-1  
kerning first=76  second=32  amount=-1  
kerning first=76  second=84  amount=-2  
kerning first=76  second=86  amount=-2  
kerning first=76  second=87  amount=-2  
kerning first=76  second=89  amount=-2  
kerning first=76  second=121 amount=-1  
kerning first=1079 second=1095 amount=-1  
kerning first=1077 second=1095 amount=-1  
kerning first=80  second=44  amount=-3  
kerning first=80  second=46  amount=-3  
kerning first=80  second=65  amount=-2  
kerning first=1077 second=1090 amount=-1  
kerning first=1077 second=1083 amount=-1  
kerning first=1075 second=1076 amount=-1  
kerning first=1075 second=46  amount=-3  
kerning first=1075 second=44  amount=-3  
kerning first=84  second=44  amount=-2  
kerning first=84  second=45  amount=-1  
kerning first=84  second=46  amount=-2  
kerning first=84  second=58  amount=-2  
kerning first=1074 second=1098 amount=-1  
kerning first=84  second=65  amount=-2  
kerning first=1074 second=1095 amount=-1  
kerning first=84  second=97  amount=-2  
kerning first=84  second=99  amount=-2  
kerning first=84  second=101 amount=-2  
kerning first=84  second=105 amount=-1  
kerning first=84  second=111 amount=-2  
kerning first=84  second=114 amount=-1  
kerning first=84  second=115 amount=-2  
kerning first=84  second=117 amount=-1  
kerning first=84  second=119 amount=-1  
kerning first=84  second=121 amount=-1  
kerning first=86  second=44  amount=-2  
kerning first=86  second=45  amount=-1  
kerning first=86  second=46  amount=-2  
kerning first=86  second=58  amount=-1  
kerning first=1073 second=1098 amount=-1  
kerning first=86  second=65  amount=-2  
kerning first=86  second=97  amount=-2  
kerning first=86  second=101 amount=-1  
kerning first=1073 second=1095 amount=-1  
kerning first=86  second=111 amount=-1  
kerning first=86  second=114 amount=-1  
kerning first=86  second=117 amount=-1  
kerning first=86  second=121 amount=-1  
kerning first=87  second=44  amount=-1  
kerning first=1073 second=1093 amount=-1  
kerning first=87  second=46  amount=-1  
kerning first=1073 second=1083 amount=-1  
kerning first=1073 second=1076 amount=-1  
kerning first=87  second=65  amount=-1  
kerning first=87  second=97  amount=-1  
kerning first=1070 second=1083 amount=-1  
kerning first=1070 second=1076 amount=-1  
kerning first=1070 second=1063 amount=-1  
kerning first=1070 second=1061 amount=-1  
kerning first=1070 second=1058 amount=-1  
kerning first=1070 second=1051 amount=-1  
kerning first=1070 second=1044 amount=-1  
kerning first=89  second=44  amount=-3  
kerning first=89  second=45  amount=-2  
kerning first=89  second=46  amount=-3  
kerning first=89  second=58  amount=-1  
kerning first=1070 second=1040 amount=-1  
kerning first=89  second=65  amount=-2  
kerning first=89  second=97  amount=-2  
kerning first=89  second=101 amount=-2  
kerning first=89  second=105 amount=-1  
kerning first=89  second=111 amount=-2  
kerning first=89  second=112 amount=-2  
kerning first=89  second=113 amount=-2  
kerning first=89  second=117 amount=-1  
kerning first=89  second=118 amount=-1  
kerning first=1069 second=1083 amount=-1  
kerning first=1069 second=1076 amount=-1  
kerning first=114 second=44  amount=-1  
kerning first=114 second=46  amount=-1  
kerning first=1069 second=1061 amount=-1  
kerning first=118 second=44  amount=-2  
kerning first=118 second=46  amount=-2  
kerning first=119 second=44  amount=-1  
kerning first=119 second=46  amount=-1  
kerning first=121 second=44  amount=-2  
kerning first=121 second=46  amount=-2  
kerning first=1069 second=1051 amount=-1  
kerning first=1069 second=1044 amount=-1  
kerning first=1068 second=1071 amount=-1  
kerning first=1068 second=1063 amount=-2  
kerning first=1068 second=1061 amount=-1  
kerning first=1068 second=1058 amount=-2  
kerning first=1068 second=1051 amount=-1  
kerning first=1068 second=1046 amount=-1  
kerning first=1066 second=1071 amount=-1  
kerning first=915 second=44  amount=-2  
kerning first=915 second=46  amount=-2  
kerning first=1061 second=1069 amount=-1  
kerning first=915 second=913 amount=-2  
kerning first=915 second=916 amount=-2  
kerning first=915 second=923 amount=-2  
kerning first=915 second=953 amount=-1  
kerning first=1061 second=1060 amount=-1  
kerning first=1061 second=1057 amount=-1  
kerning first=1061 second=1054 amount=-1  
kerning first=1060 second=1083 amount=-1  
kerning first=920 second=933 amount=-1  
kerning first=1060 second=1071 amount=-1  
kerning first=934 second=913 amount=-1  
kerning first=934 second=933 amount=-1  
kerning first=1060 second=1059 amount=-1  
kerning first=1060 second=1058 amount=-1  
kerning first=1060 second=1051 amount=-1  
kerning first=948 second=967 amount=-1  
kerning first=1060 second=1044 amount=-1  
kerning first=1059 second=1103 amount=-1  
kerning first=1059 second=1102 amount=-1  
kerning first=1059 second=1097 amount=-1  
kerning first=1059 second=1096 amount=-1  
kerning first=1059 second=1094 amount=-1  
kerning first=1059 second=1093 amount=-1  
kerning first=1059 second=1089 amount=-1  
kerning first=1059 second=1088 amount=-1  
kerning first=1059 second=1087 amount=-1  
kerning first=1059 second=1086 amount=-1  
kerning first=1059 second=1085 amount=-1  
kerning first=1059 second=1084 amount=-1  
kerning first=966 second=967 amount=-1  
kerning first=1059 second=1083 amount=-1  
kerning first=1059 second=1082 amount=-1  
kerning first=1059 second=1081 amount=-1  
kerning first=1059 second=1080 amount=-1  
kerning first=1059 second=1079 amount=-1  
kerning first=1059 second=1078 amount=-1  
kerning first=1059 second=1077 amount=-1  
kerning first=1059 second=1076 amount=-2  
kerning first=1059 second=1075 amount=-1  
kerning first=1059 second=1074 amount=-1  
kerning first=1059 second=1060 amount=-1  
kerning first=1059 second=1054 amount=-1  
kerning first=1059 second=1051 amount=-1  
kerning first=1059 second=1044 amount=-1  
kerning first=1059 second=1040 amount=-1  
kerning first=1059 second=46  amount=-3  
kerning first=1059 second=44  amount=-3  
kerning first=1058 second=1103 amount=-1  
kerning first=1058 second=1102 amount=-1  
kerning first=1058 second=1100 amount=-1  
kerning first=1058 second=1099 amount=-1  
kerning first=1058 second=1097 amount=-1  
kerning first=1058 second=1093 amount=-1  
kerning first=1058 second=1091 amount=-1  
kerning first=1058 second=1089 amount=-1  
kerning first=1058 second=1088 amount=-1  
kerning first=1058 second=1087 amount=-1  
kerning first=1058 second=1086 amount=-2  
kerning first=1058 second=1084 amount=-1  
kerning first=1058 second=1083 amount=-1  
kerning first=1058 second=1082 amount=-1  
kerning first=1058 second=1080 amount=-1  
kerning first=1058 second=1077 amount=-1  
kerning first=913 second=32  amount=-1  
kerning first=1058 second=1074 amount=-1  
kerning first=1058 second=1072 amount=-1  
kerning first=913 second=934 amount=-1  
kerning first=1058 second=1060 amount=-1  
kerning first=913 second=932 amount=-2  
kerning first=913 second=933 amount=-2  
kerning first=1058 second=1054 amount=-1  
kerning first=1058 second=1044 amount=-1  
kerning first=1058 second=1040 amount=-1  
kerning first=1058 second=46  amount=-2  
kerning first=916 second=32  amount=-1  
kerning first=1058 second=44  amount=-2  
kerning first=1057 second=1066 amount=-1  
kerning first=916 second=932 amount=-1  
kerning first=916 second=933 amount=-2  
kerning first=1057 second=1063 amount=-1  
kerning first=922 second=920 amount=-1  
kerning first=922 second=934 amount=-1  
kerning first=1057 second=1061 amount=-1  
kerning first=1057 second=1059 amount=-1  
kerning first=1057 second=1058 amount=-1  
kerning first=1057 second=1051 amount=-1  
kerning first=922 second=927 amount=-1  
kerning first=1056 second=1103 amount=-1  
kerning first=1056 second=1086 amount=-1  
kerning first=1056 second=1077 amount=-1  
kerning first=1056 second=1076 amount=-2  
kerning first=1056 second=1072 amount=-1  
kerning first=1056 second=1061 amount=-1  
kerning first=1056 second=1058 amount=-1  
kerning first=1056 second=1051 amount=-1  
kerning first=923 second=32  amount=-1  
kerning first=1056 second=1044 amount=-1  
kerning first=1056 second=1040 amount=-1  
kerning first=923 second=932 amount=-2  
kerning first=923 second=933 amount=-2  
kerning first=1056 second=46  amount=-4  
kerning first=1056 second=44  amount=-4  
kerning first=1054 second=1061 amount=-1  
kerning first=1050 second=1060 amount=-1  
kerning first=927 second=933 amount=-1  
kerning first=1044 second=1079 amount=1   
kerning first=1044 second=1063 amount=-1  
kerning first=929 second=44  amount=-3  
kerning first=929 second=46  amount=-3  
kerning first=929 second=913 amount=-2  
kerning first=929 second=916 amount=-2  
kerning first=929 second=923 amount=-2  
kerning first=931 second=964 amount=-1  
kerning first=931 second=960 amount=-1  
kerning first=1043 second=1103 amount=-1  
kerning first=932 second=44  amount=-2  
kerning first=932 second=46  amount=-2  
kerning first=932 second=58  amount=-2  
kerning first=1043 second=1102 amount=-1  
kerning first=1043 second=1100 amount=-1  
kerning first=1043 second=1099 amount=-1  
kerning first=932 second=945 amount=-2  
kerning first=932 second=949 amount=-2  
kerning first=932 second=963 amount=-2  
kerning first=932 second=966 amount=-2  
kerning first=1043 second=1091 amount=-1  
kerning first=932 second=913 amount=-2  
kerning first=932 second=916 amount=-2  
kerning first=932 second=923 amount=-2  
kerning first=1043 second=1088 amount=-1  
kerning first=1043 second=1086 amount=-1  
kerning first=1043 second=1085 amount=-1  
kerning first=1043 second=1084 amount=-1  
kerning first=1043 second=1083 amount=-1  
kerning first=932 second=947 amount=-2  
kerning first=932 second=951 amount=-2  
kerning first=932 second=953 amount=-1  
kerning first=932 second=956 amount=-2  
kerning first=932 second=957 amount=-1  
kerning first=932 second=959 amount=-2  
kerning first=932 second=965 amount=-2  
kerning first=932 second=967 amount=-1  
kerning first=932 second=968 amount=-2  
kerning first=1043 second=1080 amount=-1  
kerning first=1043 second=1077 amount=-1  
kerning first=1043 second=1076 amount=-1  
kerning first=1043 second=1074 amount=-1  
kerning first=1043 second=1072 amount=-1  
kerning first=933 second=44  amount=-3  
kerning first=933 second=45  amount=-2  
kerning first=933 second=46  amount=-3  
kerning first=933 second=58  amount=-1  
kerning first=1043 second=1071 amount=-1  
kerning first=933 second=920 amount=-1  
kerning first=933 second=934 amount=-1  
kerning first=933 second=945 amount=-2  
kerning first=933 second=963 amount=-2  
kerning first=933 second=966 amount=-2  
kerning first=1043 second=1057 amount=-1  
kerning first=933 second=913 amount=-2  
kerning first=933 second=916 amount=-2  
kerning first=933 second=923 amount=-2  
kerning first=933 second=927 amount=-1  
kerning first=933 second=937 amount=-1  
kerning first=1043 second=1054 amount=-1  
kerning first=1043 second=1051 amount=-1  
kerning first=933 second=947 amount=-1  
kerning first=933 second=951 amount=-2  
kerning first=933 second=953 amount=-1  
kerning first=933 second=954 amount=-2  
kerning first=933 second=956 amount=-2  
kerning first=933 second=959 amount=-2  
kerning first=1043 second=1044 amount=-1  
kerning first=1043 second=1040 amount=-1  
kerning first=936 second=945 amount=-1  
kerning first=936 second=948 amount=-1  
kerning first=936 second=963 amount=-1  
kerning first=936 second=966 amount=-1  
kerning first=1043 second=46  amount=-3  
kerning first=1043 second=44  amount=-3  
kerning first=936 second=959 amount=-1  
kerning first=936 second=969 amount=-1  
kerning first=1042 second=1095 amount=-1  
kerning first=1042 second=1090 amount=-1  
kerning first=1042 second=1071 amount=-1  
kerning first=1042 second=1066 amount=-1  
kerning first=1042 second=1063 amount=-1  
kerning first=1042 second=1061 amount=-1  
kerning first=1042 second=1060 amount=-1  
kerning first=1042 second=1059 amount=-1  
kerning first=1042 second=1058 amount=-1  
kerning first=1042 second=1057 amount=-1  
kerning first=1042 second=1054 amount=-1  
kerning first=1042 second=1047 amount=-1  
kerning first=1042 second=1040 amount=-1  
kerning first=1041 second=1066 amount=-1  
kerning first=1041 second=1063 amount=-1  
kerning first=1041 second=1058 amount=-1  
kerning first=1040 second=1063 amount=-2  
kerning first=1040 second=1060 amount=-1  
kerning first=1040 second=1059 amount=-1  
kerning first=1040 second=1058 amount=-2  
kerning first=1040 second=1044 amount=1   
kerning first=969 second=967 amount=-1  
kerning first=967 second=969 amount=-1  
kerning first=967 second=962 amount=-1  
kerning first=967 second=959 amount=-1  
kerning first=950 second=945 amount=-1  
kerning first=950 second=948 amount=-1  
kerning first=950 second=963 amount=-1  
kerning first=950 second=964 amount=-1  
kerning first=950 second=966 amount=-1  
kerning first=967 second=950 amount=-1  
kerning first=967 second=966 amount=-1  
kerning first=950 second=947 amount=-1  
kerning first=967 second=963 amount=-1  
kerning first=950 second=952 amount=-1  
kerning first=967 second=948 amount=-1  
kerning first=967 second=945 amount=-1  
kerning first=950 second=957 amount=-1  
kerning first=950 second=959 amount=-1  
kerning first=950 second=969 amount=-1  
kerning first=959 second=967 amount=-1  
kerning first=958 second=962 amount=-1  
kerning first=950 second=960 amount=-1  
kerning first=958 second=959 amount=-1  
kerning first=958 second=958 amount=-1  
kerning first=958 second=950 amount=-1  
kerning first=958 second=966 amount=-1  
kerning first=958 second=963 amount=-1  
kerning first=958 second=948 amount=-1  
kerning first=958 second=945 amount=-1  
kerning first=955 second=965 amount=-1  
